Data manipulation in R
…
What is ‘tidy’ data?

# A tibble: 150 × 5
   Sepal.Length Sepal.Width Petal.Length Petal.Width Species
          <dbl>       <dbl>        <dbl>       <dbl> <fct>  
 1          5.1         3.5          1.4         0.2 setosa 
 2          4.9         3            1.4         0.2 setosa 
 3          4.7         3.2          1.3         0.2 setosa 
 4          4.6         3.1          1.5         0.2 setosa 
 5          5           3.6          1.4         0.2 setosa 
 6          5.4         3.9          1.7         0.4 setosa 
 7          4.6         3.4          1.4         0.3 setosa 
 8          5           3.4          1.5         0.2 setosa 
 9          4.4         2.9          1.4         0.2 setosa 
10          4.9         3.1          1.5         0.1 setosa 
# … with 140 more rows
…
https://github.com/rstudio/cheatsheets/blob/main/data-transformation.pdf

https://github.com/rstudio/cheatsheets/blob/main/tidyr.pdf

Example

Example

Revisiting the built in R dataset iris

# A tibble: 150 × 5
   Sepal.Length Sepal.Width Petal.Length Petal.Width Species
          <dbl>       <dbl>        <dbl>       <dbl> <fct>  
 1          5.1         3.5          1.4         0.2 setosa 
 2          4.9         3            1.4         0.2 setosa 
 3          4.7         3.2          1.3         0.2 setosa 
 4          4.6         3.1          1.5         0.2 setosa 
 5          5           3.6          1.4         0.2 setosa 
 6          5.4         3.9          1.7         0.4 setosa 
 7          4.6         3.4          1.4         0.3 setosa 
 8          5           3.4          1.5         0.2 setosa 
 9          4.4         2.9          1.4         0.2 setosa 
10          4.9         3.1          1.5         0.1 setosa 
# … with 140 more rows
…
# A tibble: 150 × 6
   Sepal.Length Sepal.Width Petal.Length Petal.Width Species ratio
          <dbl>       <dbl>        <dbl>       <dbl> <fct>   <dbl>
 1          5.1         3.5          1.4         0.2 setosa   7   
 2          4.9         3            1.4         0.2 setosa   7   
 3          4.7         3.2          1.3         0.2 setosa   6.5 
 4          4.6         3.1          1.5         0.2 setosa   7.5 
 5          5           3.6          1.4         0.2 setosa   7   
 6          5.4         3.9          1.7         0.4 setosa   4.25
 7          4.6         3.4          1.4         0.3 setosa   4.67
 8          5           3.4          1.5         0.2 setosa   7.5 
 9          4.4         2.9          1.4         0.2 setosa   7   
10          4.9         3.1          1.5         0.1 setosa  15   
# … with 140 more rows
…
# A tibble: 150 × 3
   Petal.Length Petal.Width Species
          <dbl>       <dbl> <fct>  
 1          1.4         0.2 setosa 
 2          1.4         0.2 setosa 
 3          1.3         0.2 setosa 
 4          1.5         0.2 setosa 
 5          1.4         0.2 setosa 
 6          1.7         0.4 setosa 
 7          1.4         0.3 setosa 
 8          1.5         0.2 setosa 
 9          1.4         0.2 setosa 
10          1.5         0.1 setosa 
# … with 140 more rows
…
# A tibble: 128 × 5
   Sepal.Length Sepal.Width Petal.Length Petal.Width Species
          <dbl>       <dbl>        <dbl>       <dbl> <fct>  
 1          5.1         3.5          1.4         0.2 setosa 
 2          5           3.6          1.4         0.2 setosa 
 3          5.4         3.9          1.7         0.4 setosa 
 4          5           3.4          1.5         0.2 setosa 
 5          5.4         3.7          1.5         0.2 setosa 
 6          5.8         4            1.2         0.2 setosa 
 7          5.7         4.4          1.5         0.4 setosa 
 8          5.4         3.9          1.3         0.4 setosa 
 9          5.1         3.5          1.4         0.3 setosa 
10          5.7         3.8          1.7         0.3 setosa 
# … with 118 more rows
…
# A tibble: 150 × 5
   Sepal.Length Sepal.Width Petal.Length Petal.Width Species
          <dbl>       <dbl>        <dbl>       <dbl> <fct>  
 1          4.3         3            1.1         0.1 setosa 
 2          4.4         2.9          1.4         0.2 setosa 
 3          4.4         3            1.3         0.2 setosa 
 4          4.4         3.2          1.3         0.2 setosa 
 5          4.5         2.3          1.3         0.3 setosa 
 6          4.6         3.1          1.5         0.2 setosa 
 7          4.6         3.4          1.4         0.3 setosa 
 8          4.6         3.6          1           0.2 setosa 
 9          4.6         3.2          1.4         0.2 setosa 
10          4.7         3.2          1.3         0.2 setosa 
# … with 140 more rows

arrange()

# A tibble: 150 × 5
   Sepal.Length Sepal.Width Petal.Length Petal.Width Species  
          <dbl>       <dbl>        <dbl>       <dbl> <fct>    
 1          7.9         3.8          6.4         2   virginica
 2          7.7         3.8          6.7         2.2 virginica
 3          7.7         2.6          6.9         2.3 virginica
 4          7.7         2.8          6.7         2   virginica
 5          7.7         3            6.1         2.3 virginica
 6          7.6         3            6.6         2.1 virginica
 7          7.4         2.8          6.1         1.9 virginica
 8          7.3         2.9          6.3         1.8 virginica
 9          7.2         3.6          6.1         2.5 virginica
10          7.2         3.2          6           1.8 virginica
# … with 140 more rows
…
Transposition

Since the original dataset does not include a unique identifier for each observation, the below code is to simply add a identifier using the rowname called ‘index’.

# A tibble: 150 × 6
   index Sepal.Length Sepal.Width Petal.Length Petal.Width Species
   <chr>        <dbl>       <dbl>        <dbl>       <dbl> <fct>  
 1 1              5.1         3.5          1.4         0.2 setosa 
 2 2              4.9         3            1.4         0.2 setosa 
 3 3              4.7         3.2          1.3         0.2 setosa 
 4 4              4.6         3.1          1.5         0.2 setosa 
 5 5              5           3.6          1.4         0.2 setosa 
 6 6              5.4         3.9          1.7         0.4 setosa 
 7 7              4.6         3.4          1.4         0.3 setosa 
 8 8              5           3.4          1.5         0.2 setosa 
 9 9              4.4         2.9          1.4         0.2 setosa 
10 10             4.9         3.1          1.5         0.1 setosa 
# … with 140 more rows

pivot_longer()

# A tibble: 600 × 4
   index Species name         value
   <chr> <fct>   <chr>        <dbl>
 1 1     setosa  Sepal.Length   5.1
 2 1     setosa  Sepal.Width    3.5
 3 1     setosa  Petal.Length   1.4
 4 1     setosa  Petal.Width    0.2
 5 2     setosa  Sepal.Length   4.9
 6 2     setosa  Sepal.Width    3  
 7 2     setosa  Petal.Length   1.4
 8 2     setosa  Petal.Width    0.2
 9 3     setosa  Sepal.Length   4.7
10 3     setosa  Sepal.Width    3.2
# … with 590 more rows

pivot_wider()

# A tibble: 150 × 6
   index Species Sepal.Length Sepal.Width Petal.Length Petal.Width
   <chr> <fct>          <dbl>       <dbl>        <dbl>       <dbl>
 1 1     setosa           5.1         3.5          1.4         0.2
 2 2     setosa           4.9         3            1.4         0.2
 3 3     setosa           4.7         3.2          1.3         0.2
 4 4     setosa           4.6         3.1          1.5         0.2
 5 5     setosa           5           3.6          1.4         0.2
 6 6     setosa           5.4         3.9          1.7         0.4
 7 7     setosa           4.6         3.4          1.4         0.3
 8 8     setosa           5           3.4          1.5         0.2
 9 9     setosa           4.4         2.9          1.4         0.2
10 10    setosa           4.9         3.1          1.5         0.1
# … with 140 more rows
…
